<svg xmlns="http://www.w3.org/2000/svg" width="19" height="15" viewBox="0 0 19 15">
    <path fill="#000" fill-rule="nonzero" d="M18.672 0H.328A.327.327 0 0 0 0 .326v14.348c0 .18.147.326.328.326h18.344c.181 0 .328-.146.328-.326V.326A.327.327 0 0 0 18.672 0zm-.327 7.174h-2.62V4.239h2.62v2.935zm-3.276-3.261v3.26H3.931V.654h11.138v3.26zM3.276 7.173H.656V4.24h2.62v2.935zm-2.62.653h2.62v2.935H.656V7.826zm3.275 3.261v-3.26h11.138v6.52H3.931v-3.26zm11.793-3.26h2.62v2.934h-2.62V7.826zm2.62-7.175v2.935h-2.62V.652h2.62zM.656.652h2.62v2.935H.656V.652zm0 13.696v-2.935h2.62v2.935H.656zm17.69 0h-2.62v-2.935h2.62v2.935z"/>
</svg>
