<svg xmlns="http://www.w3.org/2000/svg" xmlns:xlink="http://www.w3.org/1999/xlink" width="414" height="373" viewBox="0 0 414 373">
    <defs>
        <path id="a" d="M10.797 71.122c-2.689 28.345-.893 233.106 4.476 265.704 5.373 32.59 15.213 29.762 64.457 29.762 49.236 0 308.87 4.956 316.923-9.216 8.062-14.172 4.48-281.293 3.586-303.962 0 0 6.267-42.515-28.649-41.095-43.145 1.753-264.998 4.25-307.073 4.25M7.152 369.343S-1.736 18.691.957 4.522c0 0 362.045-5.374 407.707-3.951 0 0 8.057 323.077 1.34 367.712"/>
        <radialGradient id="b" r="44.344%" fx="50%" fy="50%" gradientTransform="matrix(0 1 -.90067 0 .95 0)">
            <stop offset="0%" stop-color="#FFFDF6"/>
            <stop offset="100%" stop-color="#FDF4E2"/>
        </radialGradient>
    </defs>
    <g fill="none" fill-rule="evenodd">
        <path fill="#FFF" d="M410.475 368.67s-266.714 6.727-402.77 1.06c0 0-8.887-350.53-6.198-364.694 0 0 361.976-5.369 407.628-3.95 0 0 8.056 322.964 1.34 367.583"/>
        <path stroke="#EDC795" stroke-width=".212" d="M410.475 368.67s-266.714 6.727-402.77 1.06c0 0-8.887-350.53-6.198-364.694 0 0 361.976-5.369 407.628-3.95 0 0 8.056 322.964 1.34 367.583z"/>
        <g transform="translate(1)">
            <mask id="c" fill="#fff">
                <use xlink:href="#a"/>
            </mask>
            <path fill="url(#b)" d="M10.797 71.122c2.684-28.342 11.631-54.557 53.72-54.557 42.075 0 263.928-2.497 307.073-4.25 34.916-1.42 28.65 41.095 28.65 41.095.893 22.67 4.475 289.79-3.587 303.962-8.054 14.172-267.687 9.216-316.923 9.216-49.244 0-59.084 2.827-64.457-29.762-5.37-32.598-7.165-237.359-4.476-265.704M7.152 369.343c136.083 5.67 402.852-1.06 402.852-1.06 6.717-44.635-1.34-367.712-1.34-367.712C363.002-.852.957 4.52.957 4.52c-2.693 14.17 6.195 364.822 6.195 364.822" mask="url(#c)"/>
        </g>
    </g>
</svg>
