<svg xmlns="http://www.w3.org/2000/svg" width="59" height="59" viewBox="0 0 59 59">
    <g fill="#F58738" fill-rule="nonzero">
        <path d="M54.84 34.557L27.246 17.06a1.339 1.339 0 0 0-1.293-.068c-.41.202-.667.598-.667 1.031v34.994c0 .433.257.83.668 1.031a1.324 1.324 0 0 0 1.292-.068L54.84 36.485c.342-.217.548-.578.548-.964s-.206-.746-.548-.963zM27.794 50.809V20.231l24.113 15.29-24.113 15.288z"/>
        <path d="M56.73 1.36v6.57C43.502-3.41 22.67-2.558 9.957 10.3-3.32 23.726-3.32 45.572 9.957 59l1.607-1.625c-12.388-12.53-12.388-32.924 0-45.454C23.347.008 42.56-.894 54.922 9.396h-6.136v2.296h9.079c.626 0 1.135-.515 1.135-1.148V1.36h-2.27z"/>
    </g>
</svg>
