<svg xmlns="http://www.w3.org/2000/svg" width="54" height="54" viewBox="0 0 54 54">
    <g fill="#F17598" fill-rule="nonzero">
        <path d="M53.129 3.484H33.097V.87c0-.481-.39-.871-.871-.871H21.774a.87.87 0 0 0-.87.87v2.614H.87a.87.87 0 0 0-.871.87v32.223c0 .481.39.871.871.871h9.155l-6.455 13.56a.871.871 0 0 0 .394 1.158l3.484 1.742a.87.87 0 0 0 1.176-.405l7.644-16.055H37.73l7.646 16.05a.873.873 0 0 0 1.176.406l3.484-1.742a.871.871 0 0 0 .392-1.154l-6.456-13.56h9.156c.481 0 .871-.39.871-.87V4.353c0-.48-.39-.87-.871-.87zM22.645 1.742h8.71v1.742h-8.71V1.742zM7.435 51.948l-1.926-.963 6.446-13.537h2.384l-6.905 14.5zm32.63-16.242h-6.097v-1.741h6.097v1.741zm8.426 15.28l-1.926.962-6.905-14.5h2.384l6.447 13.537zm3.767-15.28H41.806v-2.612c0-.481-.39-.871-.87-.871h-7.84a.87.87 0 0 0-.87.87v2.613H1.742V5.226h50.516v30.48z"/>
        <path d="M10 8H5c-.553 0-1 .398-1 .889v6.222c0 .491.447.889 1 .889.552 0 1-.398 1-.889V9.778h4c.552 0 1-.398 1-.89 0-.49-.448-.888-1-.888z"/>
        <path d="M5 15a1 1 0 0 0-1 1v2a1 1 0 1 0 2 0v-2a1 1 0 0 0-1-1zM19.125 22.167h-3.046a18.25 18.25 0 0 0 3.246-3.823 3.761 3.761 0 0 0 .04-3.622C18.78 13.644 17.684 12.985 16.5 13c-1.933 0-3.5 1.642-3.5 3.667 0 .506.391.916.875.916.483 0 .875-.41.875-.916 0-1.013.783-1.833 1.75-1.833a1.47 1.47 0 0 1 1.345.796 1.847 1.847 0 0 1-.026 1.78 18.11 18.11 0 0 1-3.21 3.683c-.474.458-.937.906-1.353 1.342a.949.949 0 0 0-.19 1 .875.875 0 0 0 .809.565h5.25c.483 0 .875-.41.875-.917 0-.506-.392-.916-.875-.916zM34.875 17.583c.483 0 .875-.41.875-.916 0-1.013.783-1.833 1.75-1.833a1.47 1.47 0 0 1 1.345.796 1.847 1.847 0 0 1-.026 1.78 18.11 18.11 0 0 1-3.21 3.683c-.474.458-.937.906-1.353 1.342a.949.949 0 0 0-.19 1 .875.875 0 0 0 .809.565h5.25c.483 0 .875-.41.875-.917 0-.506-.392-.916-.875-.916h-3.046a18.25 18.25 0 0 0 3.246-3.823 3.761 3.761 0 0 0 .04-3.622C39.78 13.644 38.684 12.985 37.5 13c-1.933 0-3.5 1.642-3.5 3.667 0 .506.391.916.875.916zM31.1 17.6h-2.7v-2.7a.9.9 0 0 0-1.8 0v2.7h-2.7a.9.9 0 1 0 0 1.8h2.7v2.7a.9.9 0 1 0 1.8 0v-2.7h2.7a.9.9 0 0 0 0-1.8z"/>
    </g>
</svg>
